// Copyright (C) 2010 - 2015 by Pedro Mendes, Virginia Tech Intellectual 
// Properties, Inc., University of Heidelberg, and The University 
// of Manchester. 
// All rights reserved. 

%typemap("rtype") unsigned int, unsigned int *, unsigned int &      "integer";
%apply unsigned int {size_t}
%apply unsigned int {std::size_t}
%apply unsigned int {ptrdiff_t}
%apply unsigned int {std::ptrdiff_t}
%apply unsigned int {signed int}
%apply unsigned int {unsigned int}
%apply unsigned int {short}
%apply unsigned int {unsigned short}


%typemap(scoercein) unsigned int, unsigned int *, unsigned int &
  %{  $input = as.integer($input);     %}

%{
//typedef unsigned int size_t;
%}

//%typedef unsigned int size_t;


/**
 * Convert CFitItem objects into the most specific type possible.
 */
%typemap(out) CFitItem*
{
  $result = SWIG_NewPointerObj($1, GetDowncastSwigTypeForCFitItem($1), 0);
}

/**
 * Convert COptItem objects into the most specific type possible.
 */
%typemap(out) COptItem*
{
  $result = SWIG_NewPointerObj($1, GetDowncastSwigTypeForCOptItem($1), 0);
}

/**
 * Convert CExperimentSet objects into the most specific type possible.
%typemap(out) CExperimentSet*
{
  $result = SWIG_NewPointerObj($1, GetDowncastSwigTypeForCExperimentSet($1), 0);
}
 */

/**
 * Convert CCopasiAbstractArray objects into the most specific type possible.
 */
%typemap(out) CCopasiAbstractArray*
{
  $result = SWIG_NewPointerObj($1, GetDowncastSwigTypeForCCopasiAbstractArray($1), 0);
}

/**
 * Convert CEvaluationTree objects into the most specific type possible.
 */
%typemap(out) CEvaluationTree*
{
  $result = SWIG_NewPointerObj($1, GetDowncastSwigTypeForCEvaluationTree($1), 0);
}

/**
 * Convert COptTask objects into the most specific type possible.
 */
%typemap(out) COptTask*
{
  $result = SWIG_NewPointerObj($1, GetDowncastSwigTypeForCOptTask($1), 0);
}


/**
 * Convert Task objects into the most specific type possible.
 */
%typemap(out) CCopasiTask*
{
  $result = SWIG_NewPointerObj($1, GetDowncastSwigTypeForTask($1), 0);
}

/**
 * Convert COptProblem objects into the most specific type possible.
 */
%typemap(out) COptProblem*
{
  $result = SWIG_NewPointerObj($1, GetDowncastSwigTypeForCOptProblem($1), 0);
}

/**
 * Convert Problem objects into the most specific type possible.
 */
%typemap(out) CCopasiProblem*
{
  $result = SWIG_NewPointerObj($1, GetDowncastSwigTypeForProblem($1), 0);
}

/**
 * Convert COptMethod objects into the most specific type possible.
 */
%typemap(out) COptMethod*
{
  $result = SWIG_NewPointerObj($1, GetDowncastSwigTypeForCOptMethod($1), 0);
}


/**
 * Convert Method objects into the most specific type possible.
 */
%typemap(out) CCopasiMethod*
{
  $result = SWIG_NewPointerObj($1, GetDowncastSwigTypeForMethod($1), 0);
}

/**
 * Convert parametergroup objects into the most specific type possible.
 */
%typemap(out) CCopasiParameterGroup*
{
  $result = SWIG_NewPointerObj($1, GetDowncastSwigTypeForCCopasiParameterGroup($1), 0);
}


/**
 * Convert parameter objects into the most specific type possible.
 */
%typemap(out) CCopasiParameter*
{
  $result = SWIG_NewPointerObj($1, GetDowncastSwigTypeForCCopasiParameter($1), 0);
}

/**
 * Convert container objects into the most specific type possible.
 */
%typemap(out) CCopasiContainer*
{
  $result = SWIG_NewPointerObj($1, GetDowncastSwigTypeForCCopasiContainer($1), 0);
}

/**
 * Convert object objects into the most specific type possible.
 */
%typemap(out) CCopasiObject*
{
  $result = SWIG_NewPointerObj($1, GetDowncastSwigTypeForCCopasiObject($1), 0);
}


/*
%pythoncode
%{
import types
%}
*/

%include "../swig/copasi.i"

%{
#include "report/CCopasiRootContainer.h"
#include "commandline/COptions.h"
%}

%init %{

// Taken from CopasiSE.cpp

// Create the root container
CCopasiRootContainer::init(0,NULL,false);

%}


/*
%pythoncode %{

TriUnspecified=-1
TriFalse=0
TriTrue=1

CCopasiRootContainer.init=_COPASI.CCopasiRootContainer_init
CCopasiRootContainer.destroy=_COPASI.CCopasiRootContainer_destroy
CCopasiRootContainer.getRoot=_COPASI.CCopasiRootContainer_getRoot
CCopasiRootContainer.getFunctionList=_COPASI.CCopasiRootContainer_getFunctionList
CCopasiRootContainer.getDatamodelList=_COPASI.CCopasiRootContainer_getDatamodelList
CCopasiRootContainer.addDatamodel=_COPASI.CCopasiRootContainer_addDatamodel
CCopasiRootContainer.getUndefinedFunction=_COPASI.CCopasiRootContainer_getUndefinedFunction
CCopasiRootContainer.getKeyFactory=_COPASI.CCopasiRootContainer_getKeyFactory
CCopasiRootContainer.removeDatamodel=_COPASI.CCopasiRootContainer_removeDatamodel
CCopasiRootContainer.removeDatamodelWithIndex=_COPASI.CCopasiRootContainer_removeDatamodelWithIndex

CCopasiObjectName.escape=_COPASI.CCopasiObjectName_escape
CCopasiObjectName.unescape=_COPASI.CCopasiObjectName_unescape

CCopasiMethod.TypeNameToEnum=_COPASI.CCopasiMethod_TypeNameToEnum

CEvaluationTree.create=_COPASI.CEvaluationTree_create
CEvaluationTree.copy=_COPASI.CEvaluationTree_copy

COutputAssistant.getListOfDefaultOutputDescriptions=_COPASI.COutputAssistant_getListOfDefaultOutputDescriptions
COutputAssistant.getDefaultReportIndex=_COPASI.COutputAssistant_getDefaultReportIndex
COutputAssistant.getItemName=_COPASI.COutputAssistant_getItemName
COutputAssistant.getItem=_COPASI.COutputAssistant_getItem
COutputAssistant.createDefaultOutput=_COPASI.COutputAssistant_createDefaultOutput

CCopasiMessage.peekFirstMessage=_COPASI.CCopasiMessage_peekFirstMessage
CCopasiMessage.peekLastMessage=_COPASI.CCopasiMessage_peekLastMessage
CCopasiMessage.getFirstMessage=_COPASI.CCopasiMessage_getFirstMessage
CCopasiMessage.getLastMessage=_COPASI.CCopasiMessage_getLastMessage
CCopasiMessage.getAllMessageText=_COPASI.CCopasiMessage_getAllMessageText
CCopasiMessage.clearDeque=_COPASI.CCopasiMessage_clearDeque
CCopasiMessage.getHighestSeverity=_COPASI.CCopasiMessage_getHighestSeverity
CCopasiMessage.checkForMessage=_COPASI.CCopasiMessage_checkForMessage
CCopasiMessage.size=_COPASI.CCopasiMessage_size

%}
*/

/*
%extend CCopasiParameter
{
  %pythoncode
  %{

      def setValue(self,arg):
        result=False
        if(type(arg)==types.IntType):
           if((self.getType()==self.INT) or (arg < 0)):
             result=self.setIntValue(arg)
           else:
             result=self.setUIntValue(arg) 
        elif(type(arg)==types.FloatType):
           result=self.setDblValue(arg) 
        elif(type(arg)==types.BooleanType):
           result=self.setBoolValue(arg) 
        elif(type(arg)==types.StringType):
           result=self.setStringValue(arg) 
        elif(arg.__class__==CRegisteredObjectName):
           result=self.setCNValue(arg) 
        elif(arg.__class__ == ParameterVector):
           result=self.setGroupValue(arg) 
        return result;

      def getValue(self):
        value=None
        if(self.getType()==CCopasiParameter.DOUBLE):
          value=self.getDblValue()
        if(self.getType()==CCopasiParameter.UDOUBLE):
          value=self.getUDblValue()
        if(self.getType()==CCopasiParameter.INT):
          value=self.getIntValue()
        if(self.getType()==CCopasiParameter.UINT):
          value=self.getUIntValue()
        if(self.getType()==CCopasiParameter.BOOL):
          value=self.getBoolValue()
        if(self.getType()==CCopasiParameter.GROUP):
          value=self.getGroupValue()
        if(self.getType()==CCopasiParameter.STRING):
          value=self.getStringValue()
        if(self.getType()==CCopasiParameter.KEY):
          value=self.getKeyValue()
        if(self.getType()==CCopasiParameter.FILE):
          value=self.getFileValue()
        if(self.getType()==CCopasiParameter.CN):
          value=self.getCNValue()
        return value            
  %}

}
*/


